{"photos":{"page":1,"pages":100,"perpage":5,"total":500,"photo":[{"id":"49812640738","owner":"24662369@N07","secret":"e4c3044865","server":"65535","farm":66,"title":"Hubble Marks 30 Years in Space With Tapestry of Blazing Starbirth","ispublic":1,"isfriend":0,"isfamily":0,"datetaken":"2020-04-24 07:41:43","datetakengranularity":0,"datetakenunknown":"1","url_h":"https:\/\/live.staticflickr.com\/65535\/49812640738_d8677507ce_h.jpg","height_h":1099,"width_h":1600},{"id":"49809915491","owner":"101058950@N02","secret":"9658e02601","server":"65535","farm":66,"title":"Cape Arkona (Explore #2)","ispublic":1,"isfriend":0,"isfamily":0,"datetaken":"2020-03-14 17:50:06","datetakengranularity":"0","datetakenunknown":"0","url_h":"https:\/\/live.staticflickr.com\/65535\/49809915491_e1ca9d53c1_h.jpg","height_h":1600,"width_h":1199},{"id":"49807903392","owner":"37834207@N06","secret":"a93a42eb58","server":"65535","farm":66,"title":"European Goldfinch 049 Madrona Marsh  Southern California -","ispublic":1,"isfriend":0,"isfamily":0,"datetaken":"2020-01-05 14:09:33","datetakengranularity":"0","datetakenunknown":"0","url_h":"https:\/\/live.staticflickr.com\/65535\/49807903392_676e0f2977_h.jpg","height_h":1003,"width_h":1600},{"id":"49814780067","owner":"57761648@N02","secret":"5ca4760fff","server":"65535","farm":66,"title":"gates of heaven.","ispublic":1,"isfriend":0,"isfamily":0,"datetaken":"2016-05-16 14:23:52","datetakengranularity":"0","datetakenunknown":"0","url_h":"https:\/\/live.staticflickr.com\/65535\/49814780067_2b4cec206f_h.jpg","height_h":1600,"width_h":1600},{"id":"49814276687","owner":"156095864@N02","secret":"a13f2b3f1c","server":"65535","farm":66,"title":"Encore un jour se couche","ispublic":1,"isfriend":0,"isfamily":0,"datetaken":"2020-01-13 17:38:15","datetakengranularity":"0","datetakenunknown":"0","url_h":"https:\/\/live.staticflickr.com\/65535\/49814276687_9f5d345432_h.jpg","height_h":1068,"width_h":1600}]},"stat":"ok"}
